{
    "name": "SceneManagement.Editor",
    "rootNamespace": "SceneManagement",
    "references": [
        "ScriptableObjectWorkflow"
    ],
    "includePlatforms": [
        "Editor"
    ],
    "excludePlatforms": [],
    "allowUnsafeCode": false,
    "overrideReferences": false,
    "precompiledReferences": [],
    "autoReferenced": true,
    "defineConstraints": [],
    "versionDefines": [],
    "noEngineReferences": false
}